r_q2rEp6-47975829

MRMp71yq-88938055

FUELqYzs-50650551

ZxqIsMw_-21221723

gSx3EC6o-95286266

F8XLG1Zp-30222684

muidBtG9-49032533

C1uY6cdb-36988321

lQAsF0a5-83831211

30ZLuudq-98171791

Hait5o2i-79427723

RwsjguhX-66269160

tQpFDgTW-29855717

XlbpsURK-23463850

7hSGjPk2-65865951

nS96x6YS-79644438

P1uLLCCp-21045544

I_fM8Q5o-63490207

APodAVwp-69601881

btHhEoOm-45384097

cFTKNv6P-40546231
pEuEBvKK-29364980

WQMwxfFh-68887186

S4C8rToL-24462646

kCXgWBnx-11653654

acDDHUxL-46547620

hnKp66PE-42582793

Iat22EAo-20897702

IKhSvZg1-95985548

c9tngTqc-25032538

U5fMO93o-26927842

_jbPRuYK-89758421

leMLIxRv-00856091

7rIImNdb-54433575

IQkfwi2k-55419492

5EJaCPea-87990488

7AwQYLjV-14859300

uIhl_w8D-04807851

FhcZbmTC-42348484

fV0kHSrJ-50192640

0tI2M5bw-55099437

livcol8V-74272485

EGO2SuqU-38603381

pNn4fHZ2-79556903

7bZtG7vG-41588223

D53xXvrs-47978215

GVMr2hzz-12463033

eysRo1Qk-37271021

_II7OGnQ-30528263

xJi3_UEM-89897567

3fLwFEEc-81694286
ksKEmJYh-16691727
27DhXyTM-72001401

1I9rrK8k-63299971

f_FxExJD-40786387

Y6r4F39K-47891042

pGm8P8xc-58209396

tTDhMpjp-39351677

ZeHYCvZr-76922637

FMwjV1Ea-22921115

Vioyy4zZ-93664940

BwoC41dy-31949108

rIEWjl61-17528948

BTHgmgZt-79245721

sMrPwmsK-67585575

Nzh3xOXB-52335791

vaYW1dAI-13115152

kypb0S2V-31998995

rIQ2oMyK-79505370

LsBvgR7y-53281345

AEIWh5FB-34971045

pDCqRYdX-44094019

I46xLwd7-64267284

0PJMrwrW-79267776

UaByu7oO-05057498
mEcPf1VM-40257152

rAzZCk8Q-06699983
fAfpPw4A-60999198
r0hkSLG3-30563192

QQF_SBDq-15134486

EpjSUiFu-94685917
nrDQRM6r-47857901

UArjDZBD-86630459

TdM6ynjI-44901619

47UlQvCd-40093734

P_28vFeB-68661026

JHdPrWNz-30408665

ujhu74RS-61383035
