80

5
Candidate_1
Candidate_2
Candidate_3
Candidate_4
Candidate_5
1 5 2 3 4
4 2 5 1 3
5 4 2 1 3
2 5 3 4 1
3 5 1 2 4
4 1 2 5 3
2 1 3 5 4
5 1 2 4 3
4 2 5 1 3
4 2 3 1 5

4
Candidate_1
Candidate_2
Candidate_3
Candidate_4
4 1 2 3
1 4 2 3
3 1 4 2
2 3 1 4
4 3 1 2
4 3 1 2
2 3 1 4
4 3 2 1
3 4 1 2
1 2 3 4

3
Candidate_1
Candidate_2
Candidate_3
2 3 1
1 3 2
3 2 1
2 3 1
3 2 1
1 2 3
2 1 3
2 3 1
1 3 2
3 2 1

2
Candidate_1
Candidate_2
1 2
2 1
2 1
2 1
1 2
1 2
2 1
1 2
1 2
1 2

5
Candidate_1
Candidate_2
Candidate_3
Candidate_4
Candidate_5
3 4 2 5 1
4 5 2 1 3
1 5 3 2 4
3 5 4 2 1
2 5 4 1 3
3 2 5 1 4
2 4 5 3 1
2 3 5 4 1
4 3 1 5 2
5 2 4 3 1

3
Candidate_1
Candidate_2
Candidate_3
1 2 3
3 2 1
3 1 2
2 3 1
1 2 3
1 2 3
2 3 1
1 2 3
2 3 1
2 1 3

2
Candidate_1
Candidate_2
1 2
1 2
2 1
2 1
2 1
1 2
1 2
2 1
1 2
2 1

5
Candidate_1
Candidate_2
Candidate_3
Candidate_4
Candidate_5
4 1 3 2 5
1 5 4 2 3
4 2 3 5 1
5 3 1 4 2
2 4 1 5 3
1 2 4 5 3
5 1 2 3 4
4 1 2 5 3
1 4 3 5 2
1 3 2 4 5

5
Candidate_1
Candidate_2
Candidate_3
Candidate_4
Candidate_5
5 2 1 4 3
1 3 5 4 2
4 5 1 2 3
2 5 1 3 4
5 3 1 2 4
5 1 2 3 4
5 2 4 3 1
4 2 5 1 3
1 2 3 5 4
1 2 3 5 4

3
Candidate_1
Candidate_2
Candidate_3
3 1 2
1 2 3
1 2 3
2 1 3
2 1 3
2 1 3
3 1 2
2 3 1
3 2 1
3 1 2

4
Candidate_1
Candidate_2
Candidate_3
Candidate_4
3 2 4 1
2 1 3 4
3 2 1 4
4 1 3 2
2 4 3 1
1 4 3 2
1 2 3 4
4 3 2 1
3 2 1 4
3 2 4 1

3
Candidate_1
Candidate_2
Candidate_3
1 2 3
3 2 1
1 2 3
3 2 1
3 1 2
3 1 2
2 1 3
1 3 2
3 1 2
1 3 2

5
Candidate_1
Candidate_2
Candidate_3
Candidate_4
Candidate_5
3 1 2 4 5
4 3 2 1 5
2 5 1 3 4
2 1 4 3 5
2 4 5 1 3
1 3 5 2 4
4 1 5 3 2
5 3 4 2 1
4 5 2 1 3
3 1 4 2 5

4
Candidate_1
Candidate_2
Candidate_3
Candidate_4
1 3 2 4
3 1 4 2
2 3 1 4
1 3 4 2
4 3 2 1
1 3 2 4
2 1 4 3
4 2 1 3
4 1 2 3
1 4 2 3

3
Candidate_1
Candidate_2
Candidate_3
1 3 2
2 3 1
3 1 2
2 3 1
3 2 1
3 2 1
2 3 1
3 1 2
1 2 3
2 1 3

3
Candidate_1
Candidate_2
Candidate_3
2 1 3
1 2 3
3 1 2
3 2 1
1 2 3
3 1 2
1 3 2
3 2 1
1 3 2
1 3 2

3
Candidate_1
Candidate_2
Candidate_3
3 1 2
2 3 1
3 2 1
2 3 1
2 1 3
3 2 1
1 2 3
2 1 3
3 1 2
3 1 2

2
Candidate_1
Candidate_2
1 2
2 1
2 1
2 1
1 2
1 2
2 1
2 1
2 1
1 2

5
Candidate_1
Candidate_2
Candidate_3
Candidate_4
Candidate_5
3 2 5 4 1
2 1 5 4 3
1 3 2 4 5
2 4 1 3 5
4 3 2 1 5
5 3 4 2 1
5 2 4 1 3
3 4 5 2 1
4 2 1 3 5
3 1 5 2 4

3
Candidate_1
Candidate_2
Candidate_3
3 2 1
1 3 2
3 1 2
3 1 2
2 3 1
3 1 2
3 1 2
2 3 1
2 3 1
1 3 2

5
Candidate_1
Candidate_2
Candidate_3
Candidate_4
Candidate_5
5 2 3 4 1
4 3 1 2 5
2 3 5 1 4
3 1 5 4 2
5 4 1 3 2
5 2 1 3 4
2 4 3 1 5
1 5 3 4 2
3 5 4 1 2
2 1 4 5 3

5
Candidate_1
Candidate_2
Candidate_3
Candidate_4
Candidate_5
4 5 2 3 1
3 2 1 5 4
5 1 4 2 3
4 3 5 2 1
1 3 2 4 5
5 3 2 4 1
4 3 5 2 1
3 2 4 1 5
2 1 3 4 5
4 3 2 1 5

4
Candidate_1
Candidate_2
Candidate_3
Candidate_4
2 3 4 1
2 3 4 1
3 4 1 2
1 3 4 2
3 1 4 2
3 4 1 2
2 1 3 4
1 4 3 2
1 3 4 2
3 2 1 4

3
Candidate_1
Candidate_2
Candidate_3
2 1 3
1 3 2
2 3 1
3 2 1
2 1 3
3 2 1
3 2 1
3 2 1
2 1 3
3 2 1

5
Candidate_1
Candidate_2
Candidate_3
Candidate_4
Candidate_5
4 3 1 2 5
2 4 5 3 1
5 1 2 4 3
2 5 3 1 4
3 2 5 1 4
2 1 4 3 5
2 1 4 5 3
5 3 4 1 2
5 2 1 3 4
4 5 1 3 2

5
Candidate_1
Candidate_2
Candidate_3
Candidate_4
Candidate_5
1 5 3 2 4
2 4 3 5 1
3 4 1 2 5
4 3 5 1 2
3 2 4 1 5
5 1 4 3 2
5 2 4 3 1
5 4 2 1 3
3 4 1 2 5
5 1 4 2 3

4
Candidate_1
Candidate_2
Candidate_3
Candidate_4
3 2 1 4
4 1 3 2
2 3 4 1
1 2 3 4
4 1 2 3
2 1 4 3
4 1 3 2
1 2 3 4
2 3 1 4
1 3 4 2

3
Candidate_1
Candidate_2
Candidate_3
3 2 1
1 2 3
3 1 2
1 3 2
1 3 2
2 3 1
1 3 2
1 2 3
1 3 2
3 2 1

4
Candidate_1
Candidate_2
Candidate_3
Candidate_4
2 4 1 3
4 1 3 2
2 3 4 1
1 4 2 3
2 4 1 3
1 2 3 4
3 2 1 4
4 1 2 3
3 2 1 4
1 3 4 2

3
Candidate_1
Candidate_2
Candidate_3
1 3 2
3 1 2
1 3 2
3 1 2
2 3 1
1 2 3
3 1 2
1 3 2
1 2 3
2 3 1

3
Candidate_1
Candidate_2
Candidate_3
3 1 2
1 2 3
1 3 2
3 2 1
3 2 1
2 3 1
1 3 2
3 1 2
2 3 1
2 1 3

4
Candidate_1
Candidate_2
Candidate_3
Candidate_4
4 3 1 2
3 2 1 4
4 3 2 1
2 4 3 1
2 1 3 4
2 1 4 3
1 2 4 3
3 4 2 1
2 4 1 3
1 4 3 2

5
Candidate_1
Candidate_2
Candidate_3
Candidate_4
Candidate_5
3 2 1 5 4
1 2 5 4 3
1 4 5 3 2
3 2 5 4 1
3 4 5 1 2
3 1 2 5 4
1 3 4 2 5
4 3 5 1 2
4 2 5 3 1
2 5 1 3 4

2
Candidate_1
Candidate_2
1 2
1 2
2 1
1 2
1 2
2 1
1 2
2 1
1 2
2 1

4
Candidate_1
Candidate_2
Candidate_3
Candidate_4
1 2 3 4
2 3 4 1
3 2 4 1
3 4 1 2
4 1 3 2
3 4 2 1
4 2 1 3
3 2 1 4
4 1 2 3
2 3 4 1

3
Candidate_1
Candidate_2
Candidate_3
3 1 2
2 1 3
1 3 2
3 1 2
2 1 3
2 3 1
1 3 2
3 1 2
2 1 3
3 2 1

2
Candidate_1
Candidate_2
2 1
2 1
1 2
2 1
2 1
2 1
1 2
2 1
2 1
2 1

2
Candidate_1
Candidate_2
2 1
2 1
1 2
2 1
1 2
1 2
2 1
1 2
2 1
2 1

3
Candidate_1
Candidate_2
Candidate_3
3 1 2
3 2 1
2 3 1
3 2 1
3 2 1
3 2 1
2 3 1
2 1 3
1 2 3
3 2 1

5
Candidate_1
Candidate_2
Candidate_3
Candidate_4
Candidate_5
3 1 5 4 2
1 5 4 3 2
3 1 5 4 2
3 5 1 4 2
5 4 1 2 3
1 4 2 5 3
2 5 4 1 3
2 5 1 4 3
1 3 2 5 4
5 1 4 2 3

4
Candidate_1
Candidate_2
Candidate_3
Candidate_4
3 4 1 2
4 2 1 3
2 4 1 3
1 4 2 3
4 1 2 3
1 3 2 4
2 1 4 3
2 4 3 1
3 4 2 1
2 4 1 3

2
Candidate_1
Candidate_2
2 1
2 1
1 2
1 2
1 2
1 2
1 2
2 1
1 2
2 1

2
Candidate_1
Candidate_2
2 1
2 1
1 2
2 1
2 1
1 2
2 1
2 1
2 1
2 1

4
Candidate_1
Candidate_2
Candidate_3
Candidate_4
2 3 4 1
4 3 1 2
4 2 1 3
1 3 4 2
2 1 3 4
1 2 4 3
1 2 3 4
3 2 1 4
1 3 2 4
1 3 4 2

2
Candidate_1
Candidate_2
1 2
1 2
2 1
1 2
2 1
1 2
2 1
1 2
1 2
1 2

5
Candidate_1
Candidate_2
Candidate_3
Candidate_4
Candidate_5
3 2 1 4 5
5 1 3 4 2
3 4 1 2 5
2 3 4 5 1
2 3 5 4 1
4 1 2 3 5
3 2 4 1 5
5 2 4 1 3
1 4 5 2 3
3 5 2 1 4

5
Candidate_1
Candidate_2
Candidate_3
Candidate_4
Candidate_5
2 5 3 1 4
4 1 3 2 5
2 4 1 3 5
1 2 4 3 5
1 4 2 5 3
5 4 2 3 1
4 5 1 3 2
4 5 1 2 3
5 3 1 2 4
2 5 4 1 3

5
Candidate_1
Candidate_2
Candidate_3
Candidate_4
Candidate_5
1 2 4 3 5
5 3 2 4 1
2 4 1 3 5
4 5 1 3 2
4 2 1 5 3
4 5 2 3 1
1 3 4 2 5
1 5 3 4 2
3 5 2 4 1
1 2 5 4 3

4
Candidate_1
Candidate_2
Candidate_3
Candidate_4
4 1 3 2
4 3 2 1
2 4 3 1
2 1 3 4
1 3 4 2
2 3 4 1
1 2 4 3
4 2 3 1
3 1 2 4
4 2 3 1

5
Candidate_1
Candidate_2
Candidate_3
Candidate_4
Candidate_5
5 2 1 4 3
5 1 2 3 4
3 5 4 1 2
1 3 5 4 2
2 1 4 5 3
4 5 3 1 2
2 1 4 5 3
1 5 2 3 4
5 2 4 1 3
5 4 2 1 3

3
Candidate_1
Candidate_2
Candidate_3
1 2 3
3 1 2
3 2 1
2 3 1
3 1 2
2 1 3
2 1 3
1 2 3
3 1 2
2 3 1

3
Candidate_1
Candidate_2
Candidate_3
3 2 1
2 3 1
3 1 2
2 1 3
2 3 1
2 3 1
1 2 3
3 2 1
1 3 2
3 1 2

5
Candidate_1
Candidate_2
Candidate_3
Candidate_4
Candidate_5
2 4 5 1 3
4 5 1 2 3
2 1 4 5 3
1 2 5 4 3
3 2 5 1 4
4 3 2 1 5
5 3 4 2 1
4 5 1 3 2
5 2 1 4 3
4 1 5 2 3

3
Candidate_1
Candidate_2
Candidate_3
2 3 1
2 1 3
1 2 3
1 3 2
2 1 3
1 3 2
2 3 1
3 2 1
1 3 2
1 2 3

2
Candidate_1
Candidate_2
1 2
1 2
1 2
2 1
1 2
1 2
2 1
1 2
1 2
1 2

4
Candidate_1
Candidate_2
Candidate_3
Candidate_4
4 3 2 1
1 4 2 3
1 3 2 4
3 4 2 1
2 4 1 3
4 2 1 3
2 3 1 4
1 4 3 2
3 1 2 4
2 3 4 1

2
Candidate_1
Candidate_2
1 2
2 1
2 1
2 1
2 1
1 2
1 2
2 1
1 2
1 2

3
Candidate_1
Candidate_2
Candidate_3
2 3 1
2 3 1
1 2 3
1 2 3
1 3 2
2 3 1
2 3 1
3 2 1
1 3 2
2 3 1

3
Candidate_1
Candidate_2
Candidate_3
2 1 3
3 2 1
3 1 2
2 1 3
1 2 3
2 1 3
2 3 1
2 3 1
1 3 2
1 3 2

5
Candidate_1
Candidate_2
Candidate_3
Candidate_4
Candidate_5
4 3 1 5 2
1 5 3 2 4
2 3 1 5 4
2 3 4 5 1
5 2 1 3 4
1 4 2 3 5
1 5 4 3 2
4 2 5 1 3
5 2 4 3 1
2 4 5 1 3

5
Candidate_1
Candidate_2
Candidate_3
Candidate_4
Candidate_5
2 5 3 4 1
4 1 2 5 3
3 4 1 5 2
4 2 5 1 3
2 5 3 4 1
2 1 4 3 5
1 4 5 2 3
5 3 2 1 4
4 5 1 3 2
5 3 1 4 2

5
Candidate_1
Candidate_2
Candidate_3
Candidate_4
Candidate_5
3 5 4 2 1
1 2 5 3 4
5 2 4 1 3
4 1 3 5 2
5 1 2 3 4
5 2 3 4 1
2 1 5 4 3
5 1 4 2 3
4 2 3 1 5
5 4 3 1 2

3
Candidate_1
Candidate_2
Candidate_3
1 2 3
1 2 3
1 3 2
3 2 1
2 3 1
2 1 3
3 2 1
1 3 2
2 3 1
3 1 2

4
Candidate_1
Candidate_2
Candidate_3
Candidate_4
2 3 1 4
2 4 3 1
2 4 3 1
4 2 3 1
1 2 3 4
4 2 3 1
1 3 2 4
3 1 4 2
2 4 3 1
2 3 1 4

5
Candidate_1
Candidate_2
Candidate_3
Candidate_4
Candidate_5
2 3 4 5 1
3 1 4 2 5
2 1 5 3 4
4 2 1 3 5
2 4 3 5 1
4 3 2 1 5
1 3 5 4 2
1 5 2 4 3
5 1 4 3 2
2 1 3 5 4

5
Candidate_1
Candidate_2
Candidate_3
Candidate_4
Candidate_5
4 2 1 3 5
4 3 5 1 2
5 4 3 2 1
2 3 4 1 5
2 1 3 4 5
1 5 2 4 3
1 3 4 5 2
2 3 1 4 5
1 4 2 3 5
4 5 3 1 2

3
Candidate_1
Candidate_2
Candidate_3
2 3 1
1 2 3
1 2 3
3 1 2
2 3 1
3 1 2
2 1 3
2 1 3
2 1 3
2 3 1

4
Candidate_1
Candidate_2
Candidate_3
Candidate_4
1 3 4 2
2 3 1 4
4 2 1 3
2 3 1 4
4 1 2 3
1 3 2 4
3 2 1 4
3 4 2 1
2 4 1 3
1 4 3 2

4
Candidate_1
Candidate_2
Candidate_3
Candidate_4
4 3 2 1
2 3 1 4
1 3 2 4
2 1 4 3
3 1 4 2
1 4 3 2
4 1 3 2
2 4 1 3
3 1 2 4
4 1 3 2

2
Candidate_1
Candidate_2
1 2
1 2
2 1
1 2
1 2
1 2
1 2
1 2
1 2
1 2

5
Candidate_1
Candidate_2
Candidate_3
Candidate_4
Candidate_5
5 2 4 3 1
5 4 1 3 2
5 2 4 3 1
1 4 3 2 5
2 3 5 4 1
3 5 4 2 1
1 5 3 2 4
3 4 1 2 5
1 2 5 3 4
1 3 2 5 4

4
Candidate_1
Candidate_2
Candidate_3
Candidate_4
1 4 3 2
4 2 1 3
2 3 1 4
3 4 2 1
4 2 1 3
1 2 4 3
3 1 2 4
2 3 4 1
3 2 1 4
1 4 3 2

5
Candidate_1
Candidate_2
Candidate_3
Candidate_4
Candidate_5
4 1 2 5 3
4 5 1 2 3
1 2 3 4 5
4 2 5 1 3
1 2 4 5 3
3 2 1 5 4
2 3 1 5 4
1 2 4 3 5
1 4 5 3 2
1 5 3 2 4

2
Candidate_1
Candidate_2
2 1
1 2
1 2
1 2
1 2
2 1
2 1
2 1
2 1
1 2

5
Candidate_1
Candidate_2
Candidate_3
Candidate_4
Candidate_5
3 2 1 4 5
3 5 4 2 1
5 1 4 2 3
1 3 2 5 4
4 2 5 1 3
3 4 1 5 2
3 2 5 1 4
5 2 1 3 4
5 1 3 2 4
3 5 1 4 2

5
Candidate_1
Candidate_2
Candidate_3
Candidate_4
Candidate_5
3 5 4 2 1
2 5 1 4 3
3 2 5 1 4
2 5 3 4 1
4 2 3 1 5
1 3 4 2 5
4 3 1 2 5
4 1 2 5 3
4 2 1 3 5
5 3 2 1 4

2
Candidate_1
Candidate_2
1 2
1 2
2 1
2 1
2 1
1 2
1 2
1 2
2 1
1 2

4
Candidate_1
Candidate_2
Candidate_3
Candidate_4
1 3 2 4
3 2 1 4
3 1 4 2
1 4 2 3
2 4 3 1
1 4 3 2
4 3 1 2
1 2 4 3
1 3 4 2
2 1 3 4

2
Candidate_1
Candidate_2
1 2
2 1
1 2
2 1
1 2
2 1
1 2
1 2
2 1
2 1

4
Candidate_1
Candidate_2
Candidate_3
Candidate_4
4 1 3 2
1 4 3 2
2 3 4 1
1 2 4 3
1 2 4 3
3 4 1 2
2 1 4 3
3 1 2 4
4 3 1 2
1 3 4 2
